…
width_m <- median(iris$Petal.Width)
fil_iris <- iris %>% filter(Petal.Width > width_m)
p_length <- fil_iris$Petal.Length
p_width <- fil_iris$Petal.Width
p_area <- p_length * p_width
new_info <- fil_iris %>% select(Sepal.Length, Sepal.Width, Species)
new_tbl <- new_info %>% mutate(Petal.Area = p_area)
new_tbl
```

My result is the following:

```
# A tibble: 72 × 4
   Sepal.Length Sepal.Width Species    Petal.Area
          <dbl>       <dbl> <fct>           <dbl>
 1          7           3.2 versicolor       6.58
 2          6.4         3.2 versicolor       6.75
 3          6.9         3.1 versicolor       7.35
 4          6.5         2.8 versicolor       6.9 
 5          6.3         3.3 versicolor       7.52
 6          5.2         2.7 versicolor       5.46
 7          5.9         3   versicolor       6.3 
 8          6.1         2.9 versicolor       6.58
 9          6.7         3.1 versicolor       6.16
10          5.6         3   versicolor       6.75
# 62 more rows
# Use `print(n = ...)` to see more rows
```
…
```

Using `dplyr` functionality, create a tibble with a variable `height_ft_in` in place of `height`. The output is given:

```{r}

ft_inch <- cm_to_ft_inch(heights_df$height)
h_tbl <- heights_df %>% select(id_., gender, age)
ft_in_tbl <- h_tbl %>% mutate(height_ft_in = ft_inch)
ft_in_tbl


```
# A tibble: 506 × 4
   `id_#` gender   age height_ft_in
    <dbl> <chr>  <dbl> <chr>       
 1      1 Female    19 5 3         
 2      2 Female    19 6 8         
 3      3 Female    22 6 6         
 4      4 Male      19 6 0         
 5      5 Female    21 6 9         
 6      6 Male      19 6 2         
 7      7 Female    21 5 1         
 8      8 Female    21 5 6         
 9      9 Male      18 6 5         
10     10 Female    18 5 5         
# 496 more rows
# Use `print(n = ...)` to see more rows
```
